%YAML 1.1
%TAG !u! tag:unity3d.com,2011:
--- !u!1001 &376485209017910272
PrefabInstance:
  m_ObjectHideFlags: 0
  serializedVersion: 2
  m_Modification:
    m_TransformParent: {fileID: 0}
    m_Modifications:
    - target: {fileID: 1723754886518069890, guid: 58ead3f9a8f015e40a4a2b327941d561,
        type: 3}
      propertyPath: m_LocalPosition.x
      value: 0
      objectReference: {fileID: 0}
    - target: {fileID: 1723754886518069890, guid: 58ead3f9a8f015e40a4a2b327941d561,
        type: 3}
      propertyPath: m_LocalPosition.y
      value: 0
      objectReference: {fileID: 0}
    - target: {fileID: 1723754886518069890, guid: 58ead3f9a8f015e40a4a2b327941d561,
        type: 3}
      propertyPath: m_LocalPosition.z
      value: 0
      objectReference: {fileID: 0}
    - target: {fileID: 1723754886518069890, guid: 58ead3f9a8f015e40a4a2b327941d561,
        type: 3}
      propertyPath: m_LocalRotation.x
      value: 0
      objectReference: {fileID: 0}
    - target: {fileID: 1723754886518069890, guid: 58ead3f9a8f015e40a4a2b327941d561,
        type: 3}
      propertyPath: m_LocalRotation.y
      value: 0
      objectReference: {fileID: 0}
    - target: {fileID: 1723754886518069890, guid: 58ead3f9a8f015e40a4a2b327941d561,
        type: 3}
      propertyPath: m_LocalRotation.z
      value: 0
      objectReference: {fileID: 0}
    - target: {fileID: 1723754886518069890, guid: 58ead3f9a8f015e40a4a2b327941d561,
        type: 3}
      propertyPath: m_LocalRotation.w
      value: 1
      objectReference: {fileID: 0}
    - target: {fileID: 1723754886518069890, guid: 58ead3f9a8f015e40a4a2b327941d561,
        type: 3}
      propertyPath: m_RootOrder
      value: 0
      objectReference: {fileID: 0}
    - target: {fileID: 1723754886518069890, guid: 58ead3f9a8f015e40a4a2b327941d561,
        type: 3}
      propertyPath: m_LocalEulerAnglesHint.x
      value: 0
      objectReference: {fileID: 0}
    - target: {fileID: 1723754886518069890, guid: 58ead3f9a8f015e40a4a2b327941d561,
        type: 3}
      propertyPath: m_LocalEulerAnglesHint.y
      value: 0
      objectReference: {fileID: 0}
    - target: {fileID: 1723754886518069890, guid: 58ead3f9a8f015e40a4a2b327941d561,
        type: 3}
      propertyPath: m_LocalEulerAnglesHint.z
      value: 0
      objectReference: {fileID: 0}
    - target: {fileID: 3371458418357604759, guid: 58ead3f9a8f015e40a4a2b327941d561,
        type: 3}
      propertyPath: m_Name
      value: Blue Player
      objectReference: {fileID: 0}
    - target: {fileID: 5251054595745671436, guid: 58ead3f9a8f015e40a4a2b327941d561,
        type: 3}
      propertyPath: m_Materials.Array.data[0]
      value: 
      objectReference: {fileID: 2100000, guid: c97df50b7f01e1046bc9188098762a72, type: 2}
    - target: {fileID: 7050993881796836682, guid: 58ead3f9a8f015e40a4a2b327941d561,
        type: 3}
      propertyPath: m_Materials.Array.data[0]
      value: 
      objectReference: {fileID: 2100000, guid: c570bb3b7b4329a4e9ea86d6d4fb5004, type: 2}
    m_RemovedComponents: []
  m_SourcePrefab: {fileID: 100100000, guid: 58ead3f9a8f015e40a4a2b327941d561, type: 3}
