%YAML 1.1
%TAG !u! tag:unity3d.com,2011:
--- !u!114 &11400000
MonoBehaviour:
  m_ObjectHideFlags: 0
  m_CorrespondingSourceObject: {fileID: 0}
  m_PrefabInstance: {fileID: 0}
  m_PrefabAsset: {fileID: 0}
  m_GameObject: {fileID: 0}
  m_Enabled: 1
  m_EditorHideFlags: 0
  m_Script: {fileID: 11500000, guid: 549943f54c5f5cb4ebe5b6c11c6349a6, type: 3}
  m_Name: RPP_SlamAbility
  m_EditorClassIdentifier: 
  m_LowA: 1
  m_HighA: 1
  m_Duration: 0.25
