%YAML 1.1
%TAG !u! tag:unity3d.com,2011:
--- !u!114 &11400000
MonoBehaviour:
  m_ObjectHideFlags: 0
  m_CorrespondingSourceObject: {fileID: 0}
  m_PrefabInstance: {fileID: 0}
  m_PrefabAsset: {fileID: 0}
  m_GameObject: {fileID: 0}
  m_Enabled: 1
  m_EditorHideFlags: 0
  m_Script: {fileID: 11500000, guid: 647efd5b4fa0d4048bb30b7ecb31b06d, type: 3}
  m_Name: CBP_Clash
  m_EditorClassIdentifier: 
  m_Strength: 0.25
  m_Direction: {x: 0, y: 0, z: -1}
  m_Duration: 0.05
